<svg version="1.1" xmlns="http://www.w3.org/2000/svg" x="0px" y="0px"
	 width="311.811px" height="229.382px" viewBox="0 0 311.811 229.382" enable-background="new 0 0 311.811 229.382"
	 xml:space="preserve">
<path d="M8.16,224.453c-0.082,0-0.165-0.008-0.248-0.025c-0.631-0.129-1.058-0.723-0.978-1.361L28.072,53.949
	c0.077-0.617,0.603-1.082,1.226-1.082h253.696c0.354,0,0.691,0.152,0.925,0.418c0.234,0.266,0.344,0.619,0.3,0.971l-2.639,21.133
	c-0.077,0.617-0.603,1.081-1.225,1.081H51.369L9.348,223.559C9.192,224.097,8.701,224.453,8.16,224.453z M30.387,55.338
	l-19.018,152.15l37.88-132.592C49.4,74.367,49.886,74,50.437,74h228.829l2.33-18.662H30.387z M261.863,224.469H8.159
	c-0.387,0-0.752-0.184-0.985-0.49c-0.233-0.311-0.309-0.711-0.201-1.084L49.25,74.896C49.401,74.367,49.887,74,50.438,74h253.696
	c0.387,0,0.752,0.183,0.985,0.49c0.233,0.311,0.309,0.711,0.201,1.084l-42.27,147.998
	C262.899,224.104,262.414,224.469,261.863,224.469z M9.796,222h251.137l41.564-145.53H51.369L9.796,222z M8.145,224.436
	c-0.067,0-0.135-0.006-0.203-0.017c-0.592-0.103-1.031-0.597-1.031-1.196V52.682c0-11.561,9.409-20.964,20.974-20.964l118.982,0.008
	l14.597-14.593c4.223-4.223,9.844-6.548,15.828-6.548h63.416c12.348,0,22.392,10.038,22.392,22.375v21.142
	c0,0.684-0.554,1.235-1.235,1.235H30.387L9.385,223.336c-0.012,0.088-0.032,0.176-0.062,0.261
	C9.144,224.098,8.662,224.436,8.145,224.436z M27.884,34.188c-10.203,0-18.503,8.297-18.503,18.494v150.787L28.072,53.947
	c0.077-0.617,0.603-1.08,1.226-1.08h231.331V32.96c0-10.978-8.937-19.905-19.922-19.905h-63.416c-5.324,0-10.325,2.068-14.082,5.824
	L148.25,33.833c-0.231,0.231-0.546,0.362-0.873,0.362l0,0L27.884,34.188z M164.444,94.971c0-0.684-0.553-1.234-1.234-1.234H64.538
	c-0.682,0-1.233,0.553-1.233,1.234s0.553,1.234,1.233,1.234h98.672C163.892,96.205,164.444,95.652,164.444,94.971z M119.328,114.697
	c0-0.683-0.553-1.234-1.233-1.234H58.896c-0.683,0-1.234,0.553-1.234,1.234c0,0.683,0.554,1.234,1.234,1.234h59.199
	C118.775,115.933,119.328,115.38,119.328,114.697z M133.429,134.439c0-0.684-0.554-1.236-1.234-1.236H53.269
	c-0.683,0-1.234,0.554-1.234,1.236c0,0.682,0.553,1.233,1.234,1.233h78.926C132.875,135.673,133.429,135.119,133.429,134.439z
	 M88.327,154.164c0-0.682-0.553-1.234-1.234-1.234H47.622c-0.682,0-1.233,0.553-1.233,1.234c0,0.683,0.553,1.234,1.233,1.234h39.471
	C87.774,155.4,88.327,154.847,88.327,154.164z"/>
</svg>
