
<svg version="1.1" xmlns="http://www.w3.org/2000/svg" x="0px" y="0px"
	 width="502px" height="595.28px" viewBox="0 0 502 595.28" enable-background="new 0 0 502 595.28" xml:space="preserve">
<g transform="translate(0,-952.36216)">
	<g>
		<path fill="#C35227" d="M10.25,1511.151c0,7.626,0,15.251,0,22.877c0,2.044,1.706,3.75,3.75,3.75c30.374,0,60.748,0,91.121,0
			c63.224,0,126.447,0,189.671,0c54.227,0,108.453,0,162.68,0c10.843,0,21.686,0,32.528,0c2.044,0,3.75-1.706,3.75-3.75
			c0-7.626,0-15.251,0-22.877c0-2.044-1.706-3.75-3.75-3.75c-30.374,0-60.748,0-91.121,0c-63.224,0-126.447,0-189.671,0
			c-54.227,0-108.453,0-162.68,0c-10.843,0-21.686,0-32.528,0c-4.837,0-4.837,7.5,0,7.5c30.374,0,60.748,0,91.121,0
			c63.224,0,126.447,0,189.671,0c54.227,0,108.453,0,162.68,0c10.843,0,21.686,0,32.528,0c-1.25-1.25-2.5-2.5-3.75-3.75
			c0,7.626,0,15.251,0,22.877c1.25-1.25,2.5-2.5,3.75-3.75c-30.374,0-60.748,0-91.121,0c-63.224,0-126.447,0-189.671,0
			c-54.227,0-108.453,0-162.68,0c-10.843,0-21.686,0-32.528,0c1.25,1.25,2.5,2.5,3.75,3.75c0-7.626,0-15.251,0-22.877
			C17.75,1506.315,10.25,1506.315,10.25,1511.151z"/>
		<path fill="#C35227" d="M387.639,1416.049c2.609,4.044,5.217,8.088,7.826,12.132c1.56,2.418,3.12,4.836,4.68,7.254
			c0.965,1.496,2.061,3.944,3.582,4.836c1.809,1.059,5.028,0.512,6.993,0.512c5.201,0,10.403,0,15.604,0c21.225,0,42.45,0,63.676,0
			c2.044,0,3.75-1.706,3.75-3.75c0-7.625,0-15.251,0-22.876c0-2.044-1.706-3.75-3.75-3.75c-33.041,0-66.082,0-99.123,0
			c-4.836,0-4.836,7.5,0,7.5c33.041,0,66.082,0,99.123,0c-1.25-1.25-2.5-2.5-3.75-3.75c0,7.625,0,15.251,0,22.876
			c1.25-1.25,2.5-2.5,3.75-3.75c-28.127,0-56.254,0-84.381,0c1.079,0.619,2.158,1.238,3.238,1.857
			c-4.845-7.669-9.825-15.254-14.742-22.876C391.504,1408.216,385.009,1411.972,387.639,1416.049z"/>
		<path fill="#C35227" d="M238.553,1412.264c-5.747,7.766-12.636,14.817-18.957,22.117c-2.078,2.398-0.796,6.401,2.651,6.401
			c21.525,0,43.052,0,64.577,0c2.747,0,4.802-3.22,3.238-5.643c-2.73-4.23-5.46-8.461-8.189-12.691
			c-1.795-2.781-5.681-12.042-9.811-12.042c-10.091,0-20.181,0-30.271,0c-4.836,0-4.836,7.5,0,7.5c10.091,0,20.181,0,30.271,0
			c-1.079-0.619-2.158-1.238-3.238-1.857c4.921,7.626,9.842,15.251,14.762,22.876c1.08-1.881,2.159-3.762,3.238-5.643
			c-21.525,0-43.052,0-64.577,0c0.884,2.134,1.768,4.268,2.651,6.401c6.748-7.791,13.994-15.344,20.131-23.635
			C247.91,1412.155,241.396,1408.422,238.553,1412.264z"/>
		<path fill="#C35227" d="M10.25,1414.156c0,7.625,0,15.251,0,22.876c0,2.044,1.706,3.75,3.75,3.75c14.097,0,28.192,0,42.289,0
			c8.957,0,17.915,0,26.873,0c2.473,0,4.946,0,7.419,0c4.409,0,5.893-4.51,8.486-7.524c3.127-3.633-2.058-8.93-5.303-5.303
			c-0.056,0.062-0.111,0.124-0.166,0.186c1.768,1.768,3.535,3.535,5.303,5.303c4.802-5.544,9.603-11.089,14.403-16.633
			c2.077-2.398,0.796-6.401-2.651-6.401c-32.218,0-64.436,0-96.653,0c1.25,1.25,2.5,2.5,3.75,3.75c0-0.001,0-0.002,0-0.003
			C17.75,1409.319,10.25,1409.319,10.25,1414.156c0,0.001,0,0.002,0,0.003c0,2.044,1.706,3.75,3.75,3.75c32.218,0,64.436,0,96.653,0
			c-0.884-2.134-1.768-4.268-2.651-6.401c-4.802,5.544-9.603,11.089-14.403,16.633c-3.142,3.627,2.061,8.927,5.303,5.303
			c0.056-0.062,0.111-0.124,0.166-0.186c-1.768-1.768-3.535-3.535-5.303-5.303c-1.964,2.282-3.75,4.654-5.383,7.185
			c1.079-0.619,2.159-1.238,3.238-1.857c-25.873,0-51.747,0-77.62,0c1.25,1.25,2.5,2.5,3.75,3.75c0-7.625,0-15.251,0-22.876
			C17.75,1409.319,10.25,1409.319,10.25,1414.156z"/>
		<path fill="#C35227" d="M186.803,1284.183c-5.088,24.329-10.176,48.658-15.265,72.987c-0.923,4.413-1.846,8.826-2.769,13.24
			c-0.393,1.875-0.584,1.172,0.594-0.188c-0.715,0.826-1.431,1.652-2.146,2.479c-8.594,9.924-17.188,19.85-25.781,29.773
			c-9.277,10.715-18.556,21.43-27.834,32.145c-2.17,2.506-4.572,4.984-6.477,7.702c-6.445,9.198-8.025,20.692-4.391,31.312
			c7.753,22.646,35.846,28.718,53.871,14.673c7.119-5.548,12.835-14.144,18.679-20.893c16.812-19.417,33.625-38.835,50.438-58.252
			c9.233-10.664,10.064-26.743,12.668-40.063c0.587-3.001,3.637-10.843,1.716-13.82c-1.741-2.698-3.482-5.396-5.224-8.096
			c-13.741-21.298-27.483-42.596-41.225-63.895c-2.612-4.048-9.106-0.292-6.477,3.785c15.494,24.014,30.987,48.028,46.481,72.042
			c-0.126-0.963-0.252-1.927-0.378-2.89c-2.251,11.519-4.503,23.037-6.755,34.557c-1.999,10.228-9.849,17.394-16.408,24.971
			c-17.864,20.631-35.728,41.262-53.592,61.894c-4.666,5.39-9.91,9.14-17.015,10.662c-12.375,2.651-25.043-5.208-29.548-16.669
			c-3.657-9.303-1.359-19.824,5.085-27.267c2.345-2.708,4.69-5.416,7.035-8.124c17.36-20.05,34.722-40.099,52.083-60.148
			c2.457-2.838,2.578-7.264,3.321-10.821c2.089-9.987,4.178-19.975,6.267-29.962c3.426-16.38,6.852-32.76,10.277-49.14
			C195.021,1281.459,187.793,1279.451,186.803,1284.183z"/>
		<path fill="#C35227" d="M275.354,1083.737c-24.258,0-47.807,1.867-69.76,13.357c-3.372,1.766-1.73,6.988,1.893,6.988
			c0.02,0,0.039,0,0.059,0c-0.631-2.329-1.262-4.658-1.893-6.988c-21.896,12.152-43.888,25.783-59.949,45.365
			c-14.541,17.728-21.633,39.049-24.564,61.532c-1.732,13.29-2.017,26.755-2.121,40.14c-0.092,11.656-0.433,23.273,9.873,30.971
			c8.66,6.468,20.279,6.644,29.243,0.672c10.733-7.152,10.74-18.666,10.819-30.233c0.134-19.233-0.206-40.714,7.562-58.744
			c8.348-19.371,28.408-31.42,45.781-41.659c-1.836-1.412-3.672-2.823-5.509-4.235c-5.092,24.338-10.184,48.676-15.275,73.014
			c-1.716,8.201-3.433,16.401-5.146,24.603c-2.166,10.369-2.983,20.457,1.558,30.377c2.08,4.544,4.845,8.641,7.544,12.823
			c23.057,35.735,46.111,71.473,69.168,107.208c15.929,24.689,31.858,49.38,47.788,74.069c4.325,6.704,8.29,13.999,13.27,20.259
			c14.478,18.203,41.938,16.507,55.134-2.138c8.594-12.146,6.564-27.557-1.087-39.415c-4.27-6.617-8.539-13.235-12.809-19.854
			c-16.368-25.369-32.735-50.738-49.103-76.107c-16.716-25.908-33.432-51.816-50.146-77.725c0.126,0.963,0.252,1.926,0.378,2.89
			c5.959-24.876,11.919-49.751,17.88-74.626c-2.285,0.299-4.569,0.597-6.854,0.896c21.926,38.98,69.348,51.387,110.016,60.185
			c10.685,2.312,21.396-3.354,26.718-12.574c5.543-9.6,3.083-21.621-4.183-29.475c-3.735-4.039-8.854-5.993-14.067-7.227
			c-7.281-1.722-14.537-3.552-21.748-5.545c-10.307-2.85-20.62-6.077-30.246-10.789c-11.561-5.659-20.366-14.096-26.838-25.244
			c-9.81-16.896-12.584-37.529-17.786-56.127c-0.45-1.607-1.942-2.753-3.616-2.753c-0.001,0-0.003,0-0.004,0
			c1.205,0.918,2.41,1.835,3.616,2.753c-5.45-15.375-19.165-26.014-35.589-26.608c1.205,0.918,2.41,1.835,3.616,2.753
			c-0.002-0.012-0.004-0.022-0.006-0.034c-0.816-4.76-8.043-2.735-7.232,1.994c0.002,0.011,0.004,0.022,0.006,0.034
			c0.285,1.663,2.069,2.697,3.616,2.753c12.924,0.468,24.054,8.963,28.356,21.103c0.563,1.59,1.856,2.753,3.616,2.753
			c0.001,0,0.003,0,0.004,0c-1.205-0.918-2.41-1.835-3.616-2.753c7.093,25.355,10.755,53.181,29.788,72.928
			c12.773,13.25,31.639,19.146,48.836,24.053c6.484,1.851,13.027,3.492,19.578,5.086c7.002,1.704,12.952,3.113,17.021,9.584
			c7.192,11.439-2.041,25.718-14.737,26.312c-4.733,0.222-9.975-1.797-14.553-2.892c-5.207-1.244-10.4-2.545-15.569-3.938
			c-10.692-2.883-21.289-6.276-31.454-10.69c-19.235-8.354-36.634-20.877-47.066-39.425c-1.563-2.78-6.097-2.268-6.854,0.896
			c-5.466,22.809-10.931,45.618-16.395,68.428c-0.586,2.445-2.52,6.898-0.984,9.277c0.99,1.535,1.98,3.07,2.971,4.605
			c5.209,8.074,10.418,16.147,15.627,24.222c30.348,47.037,60.694,94.073,91.042,141.11c5.608,8.693,9.922,17.144,6.918,28.025
			c-3.274,11.863-14.942,19.141-26.856,18.821c-8.848-0.237-16.643-5.559-21.322-12.812c-13.813-21.411-27.627-42.821-41.44-64.231
			c-22.329-34.608-44.656-69.22-66.985-103.827c-7.332-11.363-14.664-22.727-21.995-34.09c-4.903-7.599-7.815-15.127-7.246-24.306
			c0.3-4.839,1.702-9.699,2.694-14.44c5.5-26.289,11-52.578,16.5-78.867c0.928-4.436,1.856-8.871,2.784-13.306
			c0.654-3.128-2.53-5.99-5.509-4.235c-18.106,10.672-38.197,23.168-47.736,42.745c-8.713,17.884-8.907,39.435-9.258,58.881
			c-0.117,6.538,0.857,13.769-0.857,20.118c-1.592,5.891-6.689,10.088-12.354,11.749c-5.506,1.615-11.549-0.138-15.838-3.758
			c-5.303-4.474-5.965-10.603-5.973-17.083c-0.028-25.552,0.172-51.934,8.98-76.247c12.369-34.138,43.625-54.659,73.961-71.495
			c3.296-1.83,1.787-6.988-1.893-6.988c-0.02,0-0.039,0-0.059,0c0.631,2.329,1.262,4.658,1.893,6.988
			c20.744-10.857,43.09-12.334,65.975-12.334C280.189,1091.237,280.189,1083.737,275.354,1083.737z"/>
		<path fill="#C35227" d="M283.936,1083.737c-2.86,0-5.722,0-8.582,0c-4.836,0-4.836,7.5,0,7.5c2.933,0,5.864,0,8.797,0
			c4.836,0,4.836-7.5,0-7.5C284.079,1083.737,284.007,1083.737,283.936,1083.737c-4.836,0-4.836,7.5,0,7.5c0.071,0,0.144,0,0.215,0
			c4.836,0,4.836-7.5,0-7.5c-2.933,0-5.864,0-8.797,0c-4.836,0-4.836,7.5,0,7.5c2.86,0,5.722,0,8.582,0
			C288.771,1091.237,288.771,1083.737,283.936,1083.737z"/>
		<path fill="#C35227" d="M291.986,959.744c-22.063,0.28-42.102,12.697-51.951,32.491c-9.791,19.676-6.976,44.322,6.796,61.388
			c14.074,17.44,36.626,24.905,58.417,20.207c21.321-4.597,38.145-22.101,43.265-43.04
			C357.354,994.632,328.371,960.203,291.986,959.744c-4.839-0.062-4.833,7.438,0,7.5c23.528,0.297,43.686,16.236,49.295,39.102
			c5.641,22.997-6.873,46.466-27.645,56.702c-21.092,10.393-47.568,3.408-61.707-14.999c-14.331-18.656-13.222-45.388,1.853-63.208
			c9.5-11.23,23.604-17.411,38.204-17.597C296.819,967.182,296.825,959.682,291.986,959.744z"/>
	</g>
</g>
</svg>
