<?xml version="1.0" encoding="iso-8859-1"?>
<!-- Generator: Adobe Illustrator 16.0.0, SVG Export Plug-In . SVG Version: 6.00 Build 0)  -->
<svg version="1.2" baseProfile="tiny"
	 xmlns="http://www.w3.org/2000/svg" xmlns:xlink="http://www.w3.org/1999/xlink" x="0px" y="0px" width="147.025px"
	 height="141.714px" viewBox="0 0 147.025 141.714" xml:space="preserve">
<g id="ARU">
	<g id="Seta">
		<g id="S4">
			<path fill="#C1B439" d="M47.385,10.545c27.346-12.015,59.436-4.473,78.461,18.58c21.551,26.111,17.853,65.026-6.183,88.06
				c-0.672,0.645,0.349,1.663,1.02,1.02c24.289-23.277,28.19-62.291,7.017-89.046C108.412,4.789,75.009-3.156,46.657,9.3
				C45.808,9.674,46.542,10.916,47.385,10.545L47.385,10.545z"/>
		</g>
		<g id="S3">
			<path fill="#C1B439" d="M25.682,21.796C2.584,43.528-2.284,78.407,14.259,105.527c17.399,28.524,54.311,38.732,84.506,25.799
				c0.853-0.365,0.117-1.607-0.728-1.245c-30.421,13.03-66.007,1.811-83.264-26.479C-1.136,77.521,4.801,43.422,26.701,22.816
				C27.38,22.178,26.358,21.16,25.682,21.796L25.682,21.796z"/>
		</g>
		<g id="S2">
			<path fill="#C1B439" d="M114.003,106.446c0.414,5.48,0.827,10.96,1.241,16.44c0.029,0.395,0.305,0.717,0.721,0.721
				c5.4,0.046,10.8,0.092,16.2,0.137c0.931,0.008,0.93-1.434,0-1.441c-5.4-0.046-10.8-0.092-16.2-0.137
				c0.24,0.24,0.48,0.48,0.721,0.721c-0.414-5.48-0.827-10.96-1.241-16.44C115.375,105.525,113.933,105.518,114.003,106.446
				L114.003,106.446z"/>
		</g>
		<g id="S1">
			<path fill="#C1B439" d="M32.229,34.387c-0.167-5.494-0.333-10.987-0.5-16.48c-0.013-0.409-0.319-0.7-0.721-0.721
				c-5.394-0.285-10.787-0.569-16.18-0.853c-0.93-0.049-0.925,1.393,0,1.441c5.393,0.285,10.786,0.569,16.18,0.853
				c-0.24-0.24-0.48-0.48-0.721-0.721c0.166,5.494,0.333,10.987,0.5,16.48C30.815,35.314,32.258,35.317,32.229,34.387L32.229,34.387
				z"/>
		</g>
	</g>
	<g id="PSol_2_">
		<g id="_x33_">
			<path fill="#C1B439" d="M40.884,104.77c-0.421-1.169-1.033-1.985-1.819-2.944c-1.817-2.218-1.881-4.456-3.18-6.785
				c-0.909-1.631-2.972-2.838-2.616-5.037c0.17-1.052,0.733-2.638,0.276-3.71c-0.629-1.478-2.068-2.485-1.586-4.306
				c0.625-2.357,1.56-4.602,2.192-6.9c0.333-1.21-1.551-3.131-2.636-3.397c-0.49-0.12-0.864,0.226-0.913,0.695
				c-0.142,1.371-0.433,2.177-1.643,3.012c-0.283,0.196-0.4,0.475-0.332,0.814c0.766,3.794-4.994,4.863-3.817,8.374
				c0.779,2.324-0.934,3.287-1.205,5.311c-0.26,1.93-0.108,3.896,0.052,5.831c0.041,0.494,0.427,0.783,0.913,0.695
				c2.894-0.524,2.792,2.203,4.956,3.052c4.526,1.776,5.807,5.393,9.379,8.232c0.335,0.266,0.91,0.311,1.133-0.146
				c0.382-0.786,0.677-1.542,0.846-2.406c0.178-0.908-1.211-1.295-1.391-0.383c-0.543,2.769-2.725-1.443-3.654-2.624
				c-1.436-1.822-2.638-2.805-4.765-3.606c-2.549-0.961-1.896-2.748-3.771-3.847c-0.311-0.182-0.869-0.1-1.146-0.101
				c-1.459-0.005-1.041,1.382-1.127,0.225c-0.164-2.218-0.393-4.284,0.82-6.237c1.048-1.688,0.131-5.061,1.034-6.169
				c1.164-1.429,2.733-2.329,3.528-4.046c0.085-0.184,0.127-0.354,0.073-0.555c-0.412-1.537,0.562-1.737,1.668-2.489
				c0.293-0.199,0.388-0.472,0.332-0.814c-0.326-1.994,0.028,0.567-0.429,1.343c-0.849,1.443-0.999,3.322-1.271,4.938
				c-0.076,0.453-0.939,1.679-0.716,2.293c0.731,2.01,2.363,2.97,2.03,5.363c-0.227,1.63-1.333,4.521,0.646,5.571
				c2.319,1.23,2.442,3.752,3.146,5.982c0.627,1.982,2.874,3.139,3.601,5.154C39.807,106.02,41.2,105.646,40.884,104.77z"/>
		</g>
		<g id="_x32_">
			<path fill="#C1B439" d="M54.019,98.816c0.173-4.91,0.826-9.696,0.608-14.619c-0.122-2.762,2.013-4.131,2.918-6.465
				c0.519-1.339-0.806-3.611-1.236-4.768c-1.575-4.229,1.42-3.877,3.379-5.025c0.938-0.549,1.024-2.63,1.474-3.502
				c1.173-2.28-0.09-4.128,1.429-6.384c6.78-10.071,16.36-18.796,24.895-27.379c0.276-0.278,0.28-0.742,0-1.02
				c-2.311-2.29-4.621-4.581-6.932-6.871c-0.209-0.208-0.619-0.307-0.874-0.113c-3.582,2.728-7.172,5.447-10.77,8.155
				c-1.588,1.196-8.288,4.339-6.896,7.021c1.829,3.524-0.707,4.316-1.987,7.15c-1.915,4.238-5.18,7.768-9.759,4.212
				c-3.217-2.497-7.18-1.303-8.437,2.805c-0.972,3.177,1.441,6.491-0.226,9.453c-0.359,0.638-1.138,1.453-1.138,2.262
				c0,2.282,1.275,5.008-2.438,5.529c-3.739,0.525-6.547,7.512-7.073,10.514c-0.235,1.342-1.407,2.845-0.56,4.18
				c1.016,1.602,1.999,2.363,1.703,4.492c-0.157,1.127-0.723,2.61-0.461,3.776c0.52,2.312,2.964,2.963,3.663,5.56
				c0.742,2.753,4.627,6.715,3.491,9.051c-0.22,0.451-0.021,0.879,0.431,1.059c1.774,0.707,3.184,0.553,4.477,2.652
				c0.649,1.055,1.063,2.428,1.98,3.305c2.21,2.114,4.788,3.776,7.253,5.571c0.532,0.387,1.216-0.249,1.06-0.814
				C52.104,111.764,53.18,105.767,54.019,98.816c0.111-0.922-1.332-0.911-1.441,0c-0.857,7.105-1.902,13.189,0.025,20.171
				c0.353-0.271,0.706-0.542,1.059-0.814c-2.514-1.831-5.623-3.495-7.459-6.05c-0.846-1.179-1.399-3.73-2.871-4.406
				c-0.833-0.383-2.902-1.023-3.002-0.781c0.73-1.77,0.637-2.479-0.401-4.05c-1.469-2.223-2.796-3.858-3.511-6.511
				c-0.357-1.329-0.96-2.377-2.071-3.142c-2.581-1.776-0.14-4.628-0.728-6.768c-0.564-2.052-2.073-2.916-1.442-5.294
				c0.979-3.692,2.551-10.006,7.232-10.663c1.571-0.221,1.962-0.521,2.788-1.842c1.198-1.914-0.812-3.584,0.001-5.476
				c0.786-1.829,1.414-2.417,1.435-4.487c0.027-2.744-1.251-4.393-0.01-7.212c2.038-4.628,6.093-0.563,8.613,0.765
				c1.127,0.594,2.655,0.096,3.682-0.413c3.431-1.698,3.546-4.029,5.865-6.682c2.204-2.521,3.62-4.215,1.88-7.264
				C62.493,35.85,77.959,25.779,80.349,23.96c-0.529,0.403-1.051-0.39-0.095,0.558c0.573,0.568,1.146,1.136,1.719,1.704
				c1.258,1.246,2.515,2.492,3.771,3.738c1.046,1.037,0.964-0.55,0.361,0.058c-0.712,0.719-1.422,1.441-2.13,2.165
				c-5.236,5.344-10.401,10.763-15.393,16.337c-2.749,3.07-5.592,6.196-7.812,9.684c-1.761,2.766,0.083,7.431-3.445,8.401
				c-1.575,0.434-2.379,2.984-2.771,4.336c-0.208,0.716,0.178,1.752,0.364,2.408c0.871,3.072,0.812,4.9-1.09,7.599
				c-1.296,1.84-0.543,4.906-0.48,6.943c0.056,1.812-0.845,3.419-0.906,5.215c-0.066,1.915,0.202,3.801,0.136,5.711
				C52.544,99.747,53.986,99.743,54.019,98.816z"/>
		</g>
		<g id="_x31_">
			<path fill="#C1B439" d="M77.03,108.318c2.13-3.897,3.977-7.875,5.175-12.217c0.537-1.948,0.83-3.114,2.578-4.4
				c0.35-0.257,0.728-0.543,0.888-0.957c0.651-1.685,0.416-3.712,1.643-5.152c1.05-1.233,2.507-1.742,3.521-3.05
				c0.745-0.96,0.468-2.48,0.186-3.544c-0.115-0.435-0.783-0.742-1.061-0.933c-1.415-0.974-0.079-2.054,0.176-2.979
				c0.609-2.215,2.338-3.979,2.76-6.084c0.204-1.017-0.156-2.3-0.236-3.327c-0.155-1.997,3.325-4.633,4.423-2.243
				c0.139,0.301,0.521,0.395,0.814,0.332c2.952-0.641,2.966-3.231,3.499-5.831c0.562-2.735,4.114-5.599,6.016-7.571
				c0.221-0.229,0.284-0.595,0.112-0.874c-1.896-3.074-4.574-8.916-7.923-10.632c-4.635-2.376-8.297-5.64-12.116-9.203
				c-0.286-0.267-0.735-0.286-1.02,0c-5.88,5.914-11.649,11.947-17.234,18.141c-2.973,3.297-6.068,6.649-8.46,10.407
				c-0.414,0.652-0.975,1.562-0.845,2.376c0.379,2.375-0.593,3.22-0.882,4.982c-0.279,1.703-1.091,0.646-1.892,1.115
				c-1.737,1.018-2.681,3.475-2.571,5.383c0.069,1.204,0.801,2.534,1.215,3.648c1.216,3.269-2.09,3.784-2.441,6.267
				C52.84,85.614,53,89.237,52.467,92.914c-0.497,3.429-0.016,6.979-0.497,10.488c-0.635,4.631-1.872,11.359,0.705,15.758
				c0.604,1.03,3.864,3.872,5.332,3.747c0.901-0.076,1.424-0.158,2.289-0.541c2.21-0.981,2.659-0.497,4.652-0.526
				c0.392-0.005,0.724-0.324,0.721-0.721c-0.011-1.635,3.716,1.137,4.9,1.618c1.377,0.56,2.067-0.84,3.005-1.485
				c3.548-2.441,2.578-9.773,3.528-13.106c0.256-0.896-1.136-1.275-1.391-0.383c-1.206,4.232-0.713,8.213-2.957,12.212
				c-1.558,2.776-5.678-1.637-7.998-1.023c-0.312,0.083-0.527,0.377-0.529,0.695c-0.011,1.587-8.938-0.093-9.618-0.693
				c-2.565-2.267-2.029-8.099-1.739-11.179c0.431-4.571,1.183-8.73,0.966-13.312c-0.107-2.276,0.858-4.329,0.953-6.572
				c0.135-3.19-0.37-5.424,1.707-8.158c2.678-3.524-1.65-6.482,0.205-10.357c1.141-2.381,1.74-0.705,2.986-1.435
				c0.938-0.549,1.024-2.63,1.474-3.502c1.08-2.101-0.171-3.896,1.124-5.931c1.56-2.451,3.555-4.658,5.449-6.85
				c4.395-5.082,9.039-9.953,13.698-14.791c1.654-1.716,3.318-3.422,4.99-5.12c0.323-0.328,0.646-0.654,0.97-0.98
				c0.077-0.078-1.259-0.4-0.582,0.228c0.517,0.48,1.039,0.956,1.562,1.432c2.353,2.145,4.742,4.27,7.31,6.157
				c1.341,0.986,2.986,1.259,4.179,2.514c1.709,1.798,3.075,3.99,4.45,6.047c0.652,0.977,1.281,1.969,1.902,2.966
				c-0.364-0.584,0.223-0.819-0.718,0.176c-0.679,0.718-1.34,1.452-1.999,2.188c-0.959,1.069-1.859,2.181-2.703,3.342
				c-0.44,0.606-0.529,1.004-0.787,1.734c0.068-0.193-1.463,5.739-2.272,3.808c-0.138-0.328-0.338-0.492-0.695-0.529
				c-2.951-0.312-5.465,1.956-5.82,4.847c-0.231,1.882,1.305,3.019-1.287,4.626c-0.355,0.221-0.981,0.628-1.054,1.1
				c-0.342,2.252-1.048,3.997-1.598,6.146c-0.061,0.238-0.007,0.532,0.186,0.701c1.002,0.886,3.204,2.174,1.727,4.08
				c-0.888,1.144-2.586,1.878-3.564,3.028c-0.576,0.677-0.612,1.868-0.735,2.68c-0.285,1.883-1.524,2.396-2.472,3.744
				c-2.056,2.926-1.862,6.575-4.287,9.434c-0.269,0.318-0.365,0.8-0.365,1.206c0,2.358-0.927,3.239-1.982,5.171
				C75.339,108.407,76.584,109.134,77.03,108.318z"/>
		</g>
	</g>
</g>
</svg>
