<?xml version="1.0" encoding="iso-8859-1"?>
<!-- Generator: Adobe Illustrator 16.0.0, SVG Export Plug-In . SVG Version: 6.00 Build 0)  -->
<svg version="1.2" baseProfile="tiny"
	 xmlns="http://www.w3.org/2000/svg" xmlns:xlink="http://www.w3.org/1999/xlink" x="0px" y="0px" width="150.738px"
	 height="141.714px" viewBox="0 0 150.738 141.714" xml:space="preserve">
<g id="Urbanismo">
	<g id="U5">
		<path fill="#C1B439" d="M117.752,48.726c5.688,0,11.377,0,17.066,0c-0.749,0-0.651-1.241-0.651-0.202c0,0.501,0,1.002,0,1.504
			c0,2.054,0,4.107,0,6.161c0,14.795,0,29.59,0,44.386c0,11.605,0,23.209,0,34.814c0,0.287,0,0.574,0,0.861
			c0-0.923,0.992-0.666-0.933-0.666c-3.871,0-7.742,0-11.613,0c-1.194,0-2.387,0-3.581,0c-0.488,0,0.437,1.224,0.437,0.36
			c0-1.35,0-2.7,0-4.049c0-27.964,0-55.929,0-83.893c0-0.935-1.45-0.935-1.45,0c0,29.436,0,58.872,0,88.308
			c0,0.395,0.33,0.725,0.725,0.725c5.713,0,11.427,0,17.14,0c0.395,0,0.725-0.33,0.725-0.725c0-29.436,0-58.872,0-88.308
			c0-0.395-0.33-0.725-0.725-0.725c-5.713,0-11.427,0-17.14,0C116.817,47.276,116.817,48.726,117.752,48.726z"/>
	</g>
	<g id="U4">
		<path fill="#C1B439" d="M52.611,48.726c5.689,0,11.378,0,17.067,0c-0.749,0-0.651-1.241-0.651-0.202c0,0.501,0,1.002,0,1.504
			c0,2.054,0,4.107,0,6.161c0,14.795,0,29.59,0,44.386c0,11.605,0,23.209,0,34.814c0,0.287,0,0.574,0,0.861
			c0-0.923,0.992-0.666-0.933-0.666c-3.871,0-7.742,0-11.614,0c-1.193,0-2.387,0-3.581,0c-0.488,0,0.437,1.224,0.437,0.36
			c0-1.35,0-2.7,0-4.049c0-27.964,0-55.929,0-83.893c0-0.935-1.45-0.935-1.45,0c0,29.436,0,58.872,0,88.308
			c0,0.395,0.33,0.725,0.725,0.725c5.714,0,11.427,0,17.141,0c0.395,0,0.725-0.33,0.725-0.725c0-29.436,0-58.872,0-88.308
			c0-0.395-0.33-0.725-0.725-0.725c-5.714,0-11.427,0-17.141,0C51.676,47.276,51.676,48.726,52.611,48.726z"/>
	</g>
	<g id="U3">
		<path fill="#C1B439" d="M86.544,69.21c5.688,0,11.377,0,17.065,0c-0.776,0-0.651-1.263-0.651-0.049c0,0.64,0,1.279,0,1.919
			c0,2.543,0,5.087,0,7.631c0,15.285,0,30.571,0,45.856c0,3.888,0,7.776,0,11.664c0-0.889,0.997-0.648-0.933-0.648
			c-1.65,0-3.3,0-4.95,0c-3.414,0-6.829,0-10.243,0c-0.307,0,0.437,1.248,0.437,0.252c0-0.574,0-1.149,0-1.723
			c0-2.434,0-4.868,0-7.302c0-7.473,0-14.947,0-22.42c0-11.969,0-23.937,0-35.906c0-0.935-1.45-0.935-1.45,0
			c0,22.608,0,45.216,0,67.824c0,0.395,0.33,0.725,0.725,0.725c5.713,0,11.426,0,17.14,0c0.395,0,0.725-0.33,0.725-0.725
			c0-22.608,0-45.216,0-67.824c0-0.395-0.33-0.725-0.725-0.725c-5.713,0-11.426,0-17.14,0C85.609,67.76,85.609,69.21,86.544,69.21z"
			/>
	</g>
	<g id="U2">
		<path fill="#C1B439" d="M17.007,82.689c5.689,0,11.378,0,17.067,0c-0.802,0-0.651-1.268-0.651,0.105c0,0.774,0,1.547,0,2.321
			c0,2.975,0,5.949,0,8.923c0,13.717,0,27.433,0,41.15c0,0.366,0,0.731,0,1.097c0-0.825,1.213-0.701,0.093-0.701
			c-0.562,0-1.124,0-1.686,0c-3.922,0-7.844,0-11.765,0c-0.995,0-1.99,0-2.984,0c0.802,0,0.651,1.268,0.651-0.105
			c0-2.19,0-4.381,0-6.571c0-14.426,0-28.853,0-43.279c0-1.222,0-2.443,0-3.665c0-0.935-1.45-0.935-1.45,0
			c0,18.115,0,36.23,0,54.345c0,0.395,0.33,0.725,0.725,0.725c5.714,0,11.427,0,17.141,0c0.395,0,0.725-0.33,0.725-0.725
			c0-18.115,0-36.23,0-54.345c0-0.395-0.33-0.725-0.725-0.725c-5.714,0-11.427,0-17.141,0
			C16.072,81.239,16.072,82.689,17.007,82.689z"/>
	</g>
	<g id="U1">
		<path fill="#C1B439" d="M7.326,75.4C23.588,59.271,39.85,43.142,56.112,27.014c2.391-2.372,4.782-4.743,7.173-7.115
			c0.508-0.504-0.932-0.263-0.751-0.109c0.414,0.353,0.828,0.706,1.242,1.059c1.969,1.678,3.937,3.355,5.906,5.033
			c8.852,7.544,17.705,15.088,26.557,22.633c0.306,0.261,0.723,0.289,1.025,0c15.567-14.873,31.134-29.745,46.701-44.618
			c0.677-0.647-0.35-1.671-1.025-1.025c-14.436,13.792-28.872,27.584-43.308,41.376c-0.959,0.917-1.919,1.833-2.878,2.75
			c-0.926,0.885,0.904,0.826-0.025,0.034c-3.593-3.062-7.187-6.125-10.78-9.188c-7.492-6.385-14.984-12.77-22.476-19.155
			c-0.302-0.257-0.728-0.295-1.025,0C43.731,37.251,25.016,55.812,6.3,74.375C5.636,75.034,6.661,76.059,7.326,75.4L7.326,75.4z"/>
	</g>
</g>
</svg>
