<svg version="1.1" xmlns="http://www.w3.org/2000/svg" x="0px" y="0px"
	 width="60.516px" height="60.148px" viewBox="0 0 60.516 60.148" enable-background="new 0 0 60.516 60.148" xml:space="preserve">
<g>
	<g>
		<path d="M29.012,37.682c0,2.49-1.88,3.757-5.516,3.757c-2.774,0-4.942-1.672-4.942-3.839
			c0-2.003,2.534-3.76,5.43-3.76h0.086c0.611,0,1.227,0.082,1.797,0.288c0.207,0.121,0.409,0.246,0.568,0.366
			c1.348,0.939,2.211,1.512,2.499,2.491C28.973,37.229,29.012,37.475,29.012,37.682z M22.963,17.95h-0.078
			c-0.652,0-1.232,0.285-1.673,0.814c-0.74,0.776-1.02,2.042-0.817,3.434c0.327,2.529,2.167,4.696,3.959,4.735h0.038
			c0.698,0,1.272-0.281,1.721-0.771c0.735-0.818,1.02-2.128,0.856-3.555C26.646,20.113,24.844,18.028,22.963,17.95z M58.754,29.754
			c0,15.725-12.786,28.512-28.473,28.512c-15.729,0-28.52-12.787-28.52-28.512c0-15.686,12.79-28.473,28.52-28.473
			C45.968,1.282,58.754,14.068,58.754,29.754z M32.526,37.354c0-2.736-0.897-4.373-3.27-6.049c-1.022-0.733-1.918-1.753-1.961-2.082
			c0-0.615,0.082-0.896,1.391-1.917c1.716-1.349,2.654-3.11,2.654-4.945c0-1.676-0.53-3.188-1.387-4.248h0.65
			c0.163,0,0.288-0.043,0.409-0.125l1.922-1.348c0.207-0.164,0.323-0.491,0.207-0.733c-0.086-0.289-0.327-0.491-0.616-0.491h-8.5
			c-0.896,0-1.839,0.164-2.775,0.491c-3.067,1.06-5.229,3.675-5.229,6.411c0,3.804,2.938,6.703,6.905,6.82
			c-0.086,0.288-0.124,0.577-0.124,0.904c0,0.569,0.159,1.142,0.451,1.672c0,0-0.043,0-0.086,0c-3.795,0-7.188,1.839-8.496,4.618
			c-0.327,0.694-0.495,1.43-0.495,2.163c0,0.694,0.168,1.349,0.534,2.004c0.813,1.426,2.529,2.572,4.899,3.148
			c1.227,0.32,2.535,0.483,3.885,0.483c1.228,0,2.413-0.164,3.473-0.483C30.32,42.666,32.526,40.211,32.526,37.354z M46.131,27.751
			c0-0.366-0.327-0.655-0.701-0.655h-4.778V22.28c0-0.366-0.328-0.693-0.689-0.693H38.61c-0.362,0-0.691,0.327-0.691,0.693v4.817
			h-4.776c-0.37,0-0.698,0.289-0.698,0.655V29.1c0,0.366,0.328,0.693,0.698,0.693h4.776v4.825c0,0.367,0.329,0.651,0.691,0.651
			h1.352c0.361,0,0.689-0.284,0.689-0.651v-4.825h4.778c0.409,0,0.701-0.327,0.701-0.693V27.751z"/>
		<path fill="#FFFFFF" d="M46.131,27.751V29.1c0,0.366-0.292,0.693-0.701,0.693h-4.778v4.825
			c0,0.367-0.328,0.651-0.689,0.651H38.61c-0.362,0-0.691-0.284-0.691-0.651v-4.825h-4.776c-0.37,0-0.698-0.327-0.698-0.693v-1.349
			c0-0.366,0.328-0.655,0.698-0.655h4.776V22.28c0-0.366,0.329-0.693,0.691-0.693h1.352c0.361,0,0.689,0.327,0.689,0.693v4.817
			h4.778C45.804,27.097,46.131,27.385,46.131,27.751z"/>
		<path fill="#FFFFFF" d="M31.014,17.989l1.922-1.348c0.207-0.164,0.323-0.491,0.207-0.733
			c-0.086-0.289-0.327-0.491-0.616-0.491h-8.5c-0.896,0-1.839,0.164-2.775,0.491c-3.067,1.06-5.229,3.675-5.229,6.411
			c0,3.804,2.938,6.703,6.905,6.82c-0.086,0.288-0.124,0.577-0.124,0.904c0,0.569,0.159,1.142,0.451,1.672c0,0-0.043,0-0.086,0
			c-3.795,0-7.188,1.839-8.496,4.618c-0.327,0.694-0.495,1.43-0.495,2.163c0,0.694,0.168,1.349,0.534,2.004
			c0.813,1.426,2.529,2.572,4.899,3.148c1.227,0.32,2.535,0.483,3.885,0.483c1.228,0,2.413-0.164,3.473-0.483
			c3.352-0.982,5.558-3.437,5.558-6.293c0-2.736-0.897-4.373-3.27-6.049c-1.022-0.733-1.918-1.753-1.961-2.082
			c0-0.615,0.082-0.896,1.391-1.917c1.716-1.349,2.654-3.11,2.654-4.945c0-1.676-0.53-3.188-1.387-4.248h0.65
			C30.768,18.114,30.893,18.071,31.014,17.989z M20.395,22.198c-0.202-1.392,0.077-2.658,0.817-3.434
			c0.44-0.529,1.021-0.814,1.673-0.814h0.078c1.881,0.079,3.683,2.163,4.006,4.657c0.163,1.427-0.121,2.736-0.856,3.555
			c-0.448,0.491-1.022,0.771-1.721,0.771h-0.038C22.562,26.894,20.722,24.727,20.395,22.198z M28.934,36.984
			c0.039,0.245,0.078,0.491,0.078,0.697c0,2.49-1.88,3.757-5.516,3.757c-2.774,0-4.942-1.672-4.942-3.839
			c0-2.003,2.534-3.76,5.43-3.76h0.086c0.611,0,1.227,0.082,1.797,0.288c0.207,0.121,0.409,0.246,0.568,0.366
			C27.782,35.433,28.646,36.006,28.934,36.984z"/>
	</g>
</g>
</svg>
