<svg version="1.1" xmlns="http://www.w3.org/2000/svg" x="0px" y="0px"
	 width="60.516px" height="60.148px" viewBox="0 0 60.516 60.148" enable-background="new 0 0 60.516 60.148" xml:space="preserve">
<g>
	<g>
		<path fill="#FFFFFF" d="M40.229,13.516h-19.98c-3.433,0-6.251,2.818-6.251,6.29v19.977
			c0,3.43,2.818,6.291,6.251,6.291h19.98c3.469,0,6.286-2.861,6.286-6.291V19.806C46.515,16.333,43.698,13.516,40.229,13.516z
			 M37.24,17.272h5.514v5.515H37.24V17.272z M25.603,26.466c1.061-1.473,2.736-2.408,4.653-2.408c1.921,0,3.597,0.936,4.618,2.408
			c0.693,0.936,1.104,2.081,1.104,3.309c0,3.184-2.577,5.717-5.722,5.717c-3.184,0-5.761-2.533-5.721-5.717
			C24.535,28.547,24.905,27.401,25.603,26.466z M43.331,39.782c0,1.715-1.387,3.103-3.102,3.103h-19.98
			c-1.714,0-3.102-1.388-3.102-3.103V26.466h4.855c-0.405,1.021-0.647,2.167-0.647,3.309c0,4.902,3.999,8.905,8.901,8.905
			c4.907,0,8.867-4.002,8.867-8.905c0-1.142-0.204-2.288-0.656-3.309h4.864V39.782z"/>
		<path d="M35.978,29.775c0,3.184-2.577,5.717-5.722,5.717c-3.184,0-5.761-2.533-5.721-5.717
			c0-1.228,0.37-2.374,1.067-3.309c1.061-1.473,2.736-2.408,4.653-2.408c1.921,0,3.597,0.936,4.618,2.408
			C35.567,27.401,35.978,28.547,35.978,29.775z M37.24,17.272v5.515h5.514v-5.515H37.24z M58.854,29.775
			c0,15.768-12.826,28.593-28.598,28.593c-15.768,0-28.594-12.825-28.594-28.593c0-15.729,12.826-28.555,28.594-28.555
			C46.028,1.22,58.854,14.046,58.854,29.775z M46.515,19.806c0-3.472-2.817-6.29-6.286-6.29h-19.98c-3.433,0-6.251,2.818-6.251,6.29
			v19.977c0,3.43,2.818,6.291,6.251,6.291h19.98c3.469,0,6.286-2.861,6.286-6.291V19.806z M38.467,26.466
			c0.452,1.021,0.656,2.167,0.656,3.309c0,4.902-3.96,8.905-8.867,8.905c-4.903,0-8.901-4.002-8.901-8.905
			c0-1.142,0.242-2.288,0.647-3.309h-4.855v13.316c0,1.715,1.388,3.103,3.102,3.103h19.98c1.715,0,3.102-1.388,3.102-3.103V26.466
			H38.467z"/>
	</g>
</g>
</svg>
