<svg version="1.1" xmlns="http://www.w3.org/2000/svg" x="0px" y="0px"
	 width="57.5px" height="51px" viewBox="0 0 57.5 51" enable-background="new 0 0 57.5 51" xml:space="preserve">
<g>
	<path d="M22.72,11.1c0,5.404-4.556,9.776-10.156,9.776c-5.621,0-10.163-4.372-10.163-9.776
		c0-5.393,4.542-9.764,10.163-9.764C18.164,1.336,22.72,5.707,22.72,11.1z M45.364,1.336c-5.597,0-10.156,4.371-10.156,9.764
		c0,5.404,4.559,9.776,10.156,9.776c5.607,0,10.154-4.372,10.154-9.776C55.518,5.707,50.971,1.336,45.364,1.336z M12.564,29.803
		c-5.621,0-10.163,4.379-10.163,9.773c0,5.386,4.542,9.757,10.163,9.757c5.6,0,10.156-4.371,10.156-9.757
		C22.72,34.182,18.164,29.803,12.564,29.803z M45.364,29.803c-5.597,0-10.156,4.379-10.156,9.773c0,5.386,4.559,9.757,10.156,9.757
		c5.607,0,10.154-4.371,10.154-9.757C55.518,34.182,50.971,29.803,45.364,29.803z"/>
</g>
</svg>
