<svg version="1.1" xmlns="http://www.w3.org/2000/svg" x="0px" y="0px"
	 width="43.5px" height="51px" viewBox="0 0 43.5 51" enable-background="new 0 0 43.5 51" xml:space="preserve">
<g>
	<path d="M39.739,42.597H4.122c-1.584,0-2.608-1.657-1.903-3.08l5.549-11.054v-9.354
		c0-6.589,4.522-12.13,10.653-13.689c-0.026-0.146-0.046-0.292-0.046-0.438c0.02-1.94,1.593-3.525,3.545-3.525
		c1.957,0,3.542,1.585,3.542,3.525c0,0.147,0,0.292-0.028,0.438c6.121,1.559,10.643,7.1,10.643,13.689v9.354l5.55,11.054
		C42.354,40.927,41.312,42.597,39.739,42.597z M17.783,45.051c0,2.34,1.905,4.243,4.243,4.243c2.349,0,4.243-1.902,4.243-4.243
		H17.783z"/>
</g>
</svg>
