<svg version="1.1" xmlns="http://www.w3.org/2000/svg" x="0px" y="0px"
	 width="50.7px" height="51px" viewBox="0 0 50.7 51" enable-background="new 0 0 50.7 51" xml:space="preserve">
<g>
	<path d="M42.145,8.739c-4.242-4.306-10.123-6.978-16.633-7.025c-13.02-0.075-23.66,10.431-23.748,23.46
		c-0.08,13.042,10.412,23.679,23.434,23.758c13.023,0.08,23.65-10.406,23.737-23.449C48.984,18.963,46.389,13.037,42.145,8.739z
		 M38.65,25.417l-21.728,9.644l6.816-9.688l-6.732-9.851L38.65,25.417L38.65,25.417z"/>
</g>
</svg>
